AWSTATS DATA FILE 7.0 (build 1.971)
# If you remove this file, all statistics for date 201701 will be lost/reset.
# Last config file used to build this data file was /etc/awstats/awstats.moscowdiamond.ru.conf.

# Position (offset in bytes) in this file for beginning of each section for
# direct I/O access. If you made changes somewhere in this file, you should
# also remove completely the MAP section (AWStats will rewrite it at next
# update).
BEGIN_MAP 27
POS_GENERAL 1996                
POS_TIME 2657                
POS_VISITOR 6827                
POS_DAY 7731                
POS_DOMAIN 3292                
POS_LOGIN 3521                
POS_ROBOT 3676                
POS_WORMS 4109                
POS_EMAILSENDER 4240                
POS_EMAILRECEIVER 4383                
POS_SESSION 7967                
POS_SIDER 8134                
POS_FILETYPES 4518                
POS_DOWNLOADS 4726                
POS_OS 4795                
POS_BROWSER 4900                
POS_SCREENSIZE 5118                
POS_UNKNOWNREFERER 5192                
POS_UNKNOWNREFERERBROWSER 5348                
POS_ORIGIN 5499                
POS_SEREFERRALS 5634                
POS_PAGEREFS 5778                
POS_SEARCHWORDS 5948                
POS_KEYWORDS 6100                
POS_MISC 2321                
POS_ERRORS 6159                
POS_CLUSTER 3377                
POS_SIDER_404 6283                
END_MAP

# LastLine    = Date of last record processed - Last record line number in last log - Last record offset in last log - Last record signature value
# FirstTime   = Date of first visit for history file
# LastTime    = Date of last visit for history file
# LastUpdate  = Date of last update - Nb of parsed records - Nb of parsed old records - Nb of parsed new records - Nb of parsed corrupted - Nb of parsed dropped
# TotalVisits = Number of visits
# TotalUnique = Number of unique visitors
# MonthHostsKnown   = Number of hosts known
# MonthHostsUnKnown = Number of hosts unknown
BEGIN_GENERAL 8
LastLine 20170110220134 3 351 13357483077064
FirstTime 0
LastTime 20170107214746
LastUpdate 20170111140308 0 0 0 0 0
TotalVisits 27                  
TotalUnique 19                  
MonthHostsKnown 0                   
MonthHostsUnknown 22                  
END_GENERAL

# Misc ID - Pages - Hits - Bandwidth
BEGIN_MISC 10
QuickTimeSupport 0 0 0
JavaEnabled 0 0 0
JavascriptDisabled 0 0 0
PDFSupport 0 0 0
WindowsMediaPlayerSupport 0 0 0
AddToFavourites 0 4 0
RealPlayerSupport 0 0 0
TotalMisc 0 0 0
DirectorSupport 0 0 0
FlashSupport 0 0 0
END_MISC

# Hour - Pages - Hits - Bandwidth - Not viewed Pages - Not viewed Hits - Not viewed Bandwidth
BEGIN_TIME 24
0 0 0 0 0 1 3740
1 0 3 145803 6 30 279089
2 9 9 272473 1 1 0
3 1 1 16554 2 2 3740
4 1 1 19815 4 5 47110
5 0 0 0 9 9 147868
6 2 2 39630 5 18 81622
7 7 7 149369 0 0 0
8 1 1 19815 4 6 33131
9 11 83 885694 5 10 106146
10 0 0 0 5 5 18700
11 2 23 897560 1 5 27429
12 0 0 0 2 4 4496
13 0 0 0 2 3 19882
14 0 0 0 0 0 0
15 0 0 0 3 3 0
16 1 23 19815 3 18 181293
17 6 62 2388874 0 2 111922
18 1 1 19815 6 6 108238
19 0 0 0 1 1 19815
20 2 2 39630 1 2 7480
21 3 3 59445 2 4 11220
22 3 3 59445 1 2 3740
23 0 0 0 1 23 98355
END_TIME

# Domain - Pages - Hits - Bandwidth
# The 10 first Pages must be first (order not required for others)
BEGIN_DOMAIN 1
ip 50 224 5033737
END_DOMAIN

# Cluster ID - Pages - Hits - Bandwidth
BEGIN_CLUSTER 0
END_CLUSTER

# Login - Pages - Hits - Bandwidth - Last visit
# The 10 first Pages must be first (order not required for others)
BEGIN_LOGIN 0
END_LOGIN

# Robot ID - Hits - Bandwidth - Last visit - Hits on robots.txt
# The 10 first Hits must be first (order not required for others)
BEGIN_ROBOT 8
googlebot 36 239416 20170105065103 4
yandex 21 201414 20170107083453 3
wordpress 14 0 20170107214747 0
bot[\s_+:,\.\;\/\\-] 8 147935 20170106183158 1
[\s_+:,\.\;\/\\-]bot 7 128120 20170107050309 1
no_user_agent 3 59445 20170107050113 0
unknown 1 67 20170104112849 1
cfnetwork 1 33719 20170104095423 0
END_ROBOT

# Worm ID - Hits - Bandwidth - Last visit
# The 5 first Hits must be first (order not required for others)
BEGIN_WORMS 0
END_WORMS

# EMail - Hits - Bandwidth - Last visit
# The 20 first Hits must be first (order not required for others)
BEGIN_EMAILSENDER 0
END_EMAILSENDER

# EMail - Hits - Bandwidth - Last visit
# The 20 first hits must be first (order not required for others)
BEGIN_EMAILRECEIVER 0
END_EMAILRECEIVER

# Files type - Hits - Bandwidth - Bandwidth without compression - Bandwidth after compression
BEGIN_FILETYPES 8
css 73 198201 0 0
png 51 1748400 0 0
html 44 900632 0 0
jpg 10 1265294 0 0
js 34 407710 0 0
woff 2 196048 0 0
woff2 4 308640 0 0
gif 6 8812 0 0
END_FILETYPES

# Downloads - Hits - Bandwidth
BEGIN_DOWNLOADS 1
/robots.txt 10 0 670
END_DOWNLOADS

# OS ID - Hits
BEGIN_OS 7
macosx 90
winxp 7
winnt 66
Unknown 11
linux 21
winvista 2
win7 27
END_OS

# Browser ID - Hits
BEGIN_BROWSER 10
firefox28.0 1
safari10.0.1 12
chrome55.0.2883.87 92
chrome38.0.2125.104 1
chrome47.0.2526.111 1
chrome48.0.2564.116 1
firefox16.0 7
safari10.0 77
Unknown 11
safari 21
END_BROWSER

# Screen size - Hits
BEGIN_SCREENSIZE 0
END_SCREENSIZE

# Unknown referer OS - Last visit date
BEGIN_UNKNOWNREFERER 2
Go-http-client/1.1 20170105071711
Go_1.1_package_http 20170107214746
END_UNKNOWNREFERER

# Unknown referer Browser - Last visit date
BEGIN_UNKNOWNREFERERBROWSER 2
Go-http-client/1.1 20170105071711
Go_1.1_package_http 20170107214746
END_UNKNOWNREFERERBROWSER

# Origin - Pages - Hits 
BEGIN_ORIGIN 6
From0 30 30
From1 0 0
From2 0 0
From3 1 1
From4 19 193
From5 0 0
END_ORIGIN

# Search engine referers ID - Pages - Hits
BEGIN_SEREFERRALS 0
END_SEREFERRALS

# External page referers - Pages - Hits
# The 10 first Pages must be first (order not required for others)
BEGIN_PAGEREFS 1
http://kolxoz.net 1 1
END_PAGEREFS

# Search keyphrases - Number of search
# The 10 first number of search must be first (order not required for others)
BEGIN_SEARCHWORDS 0
END_SEARCHWORDS

# Search keywords - Number of search
# The 10 first number of search must be first (order not required for others)
BEGIN_KEYWORDS 0
END_KEYWORDS

# Errors - Hits - Bandwidth
BEGIN_ERRORS 4
403 49 183260
206 2 111922
404 10 164460
301 4 0
END_ERRORS

# URL with 404 errors - Hits - Last URL referer
BEGIN_SIDER_404 9
/css/index.css 1 -
/css/site_global.css 1 -
/scripts/jquery.watch.js 1 -
/scripts/museutils.js 1 -
/bitrix/admin/ 2 -
/scripts/jquery.museoverlay.js 1 -
/scripts/webpro.js 1 -
/scripts/musewpslideshow.js 1 -
/scripts/touchswipe.js 1 -
END_SIDER_404

# Host - Pages - Hits - Bandwidth - Last visit date - [Start date of last visit] - [Last page of last visit]
# [Start date of last visit] and [Last page of last visit] are saved only if session is not finished
# The 10 first Hits must be first (order not required for others)
BEGIN_VISITOR 22
83.237.190.249 9 9 272473 20170104020543
82.146.49.235 7 7 138705 20170107092648
213.87.135.97 7 51 345007 20170104095739
77.79.148.238 6 62 2388874 20170102173914
91.107.109.169 4 4 89924 20170105071711
83.220.236.90 3 25 229266 20170104095759
37.46.128.186 2 2 39630 20170105203148
82.146.63.123 1 1 19815 20170107214746
46.48.13.161 1 1 19815 20170103110630
82.146.58.161 1 1 19815 20170106220654
91.189.112.7 1 1 19815 20170102205737
91.77.22.245 1 1 19815 20170105072203
62.109.27.164 1 1 19815 20170101183424
79.172.82.207 0 3 145803 
83.220.236.50 1 23 19815 20170105163521
144.76.175.75 1 22 877745 20170104112851
83.220.237.6 1 1 19815 20170102222710
149.202.127.215 1 1 16554 20170104032113
83.237.184.102 0 3 145803 
62.109.24.115 1 1 19815 20170102215247
82.146.58.176 1 1 19815 20170104213634
91.79.60.223 0 3 145803 
END_VISITOR

# Date - Pages - Hits - Bandwidth - Visits
BEGIN_DAY 8
20170101 2 2 39630 2
20170102 12 68 2513096 6
20170103 3 3 59445 3
20170104 23 110 1780675 7
20170105 6 28 124222 5
20170106 2 2 39630 2
20170107 2 2 39630 2
20170109 0 9 437409 0
END_DAY

# Session range - Number of visits
BEGIN_SESSION 3
2mn-5mn 1
30s-2mn 2
0s-30s 24
END_SESSION

# URL - Pages - Bandwidth - Entry - Exit
# The 10 first Pages must be first (order not required for others)
BEGIN_SIDER 10
/ 30 594450 25 21
/wp-content/themes/shopstar/library/fonts/font-awesome/fonts/fontawesome-webfont.woff2 4 308640 0 2
/%d0%b3%d0%bb%d0%b0%d0%b2%d0%bd%d0%b0%d1%8f/%d0%ba%d0%be%d0%bd%d1%82%d0%b0%d0%ba%d1%82%d1%8b/ 4 100588 0 2
/%d0%b3%d0%bb%d0%b0%d0%b2%d0%bd%d0%b0%d1%8f/service/ 3 64572 0 0
/wp-content/themes/shopstar/library/fonts/font-awesome/fonts/fontawesome-webfont.woff 2 196048 1 0
/%d0%b3%d0%bb%d0%b0%d0%b2%d0%bd%d0%b0%d1%8f/%d0%ba%d0%b0%d1%82%d0%b0%d0%bb%d0%be%d0%b3/ 2 42890 0 1
/%d0%b3%d0%bb%d0%b0%d0%b2%d0%bd%d0%b0%d1%8f/%d0%be%d0%b3%d1%80%d0%b0%d0%bd%d0%ba%d0%b0/ 2 40022 0 0
/%d0%b3%d0%bb%d0%b0%d0%b2%d0%bd%d0%b0%d1%8f/about-diamonds/ 1 20111 0 0
/author/hope/ 1 16554 1 1
/%D0%B3%D0%BB%D0%B0%D0%B2%D0%BD%D0%B0%D1%8F/%D0%BA%D0%B0%D1%82%D0%B0%D0%BB%D0%BE%D0%B3/ 1 21445 0 0
END_SIDER
